2
4
3
4
4
4
5
4
6
4
6
5
6
6
6
7
6
8
6
9
7
9
8
9
9
9
10
9
11
9
12
9
13
9
13
8
13
7
13
6
13
5
13
4
14
4
15
4
16
4
17
4
18
4
19
4
20
4
20
3
20
2
21
2
22
2
23
2
24
2
25
2
26
2
27
2
28
2
29
2
29
1
30
1
31
1
32
1
32
2
32
3
32
4
32
5
32
6
32
7
32
8
32
9
32
10
33
10
